\relax 
\providecommand\hyper@newdestlabel[2]{}
\@writefile{toc}{\contentsline {section}{\numberline {1}Introduction}{4}{section.1}}
\@writefile{toc}{\contentsline {section}{Introduction}{4}{section.1}}
\@writefile{toc}{\contentsline {subsection}{Internship proposal}{4}{section*.3}}
\@writefile{toc}{\contentsline {subsection}{The Company}{5}{section*.4}}
\@writefile{toc}{\contentsline {subsubsection}{Siemens Businesses}{5}{section*.5}}
\@writefile{toc}{\contentsline {subsubsection}{History}{5}{section*.6}}
\@writefile{lof}{\contentsline {figure}{\numberline {1}{\ignorespaces Siemens timeline}}{6}{figure.1}}
\newlabel{history}{{1}{6}{Siemens timeline}{figure.1}{}}
\@writefile{toc}{\contentsline {subsubsection}{Managing board}{7}{section*.7}}
\@writefile{lof}{\contentsline {figure}{\numberline {2}{\ignorespaces Siemens timeline}}{7}{figure.2}}
\newlabel{history}{{2}{7}{Siemens timeline}{figure.2}{}}
\@writefile{toc}{\contentsline {subsection}{Company's level of maturity on internship proposal}{8}{section*.8}}
\@writefile{toc}{\contentsline {subsection}{Knowledge on intership proposal}{8}{section*.9}}
\@setckpt{intro}{
\setcounter{page}{9}
\setcounter{equation}{0}
\setcounter{enumi}{0}
\setcounter{enumii}{0}
\setcounter{enumiii}{0}
\setcounter{enumiv}{0}
\setcounter{footnote}{0}
\setcounter{mpfootnote}{0}
\setcounter{part}{0}
\setcounter{section}{1}
\setcounter{subsection}{0}
\setcounter{subsubsection}{0}
\setcounter{paragraph}{0}
\setcounter{subparagraph}{0}
\setcounter{figure}{2}
\setcounter{table}{0}
\setcounter{Item}{0}
\setcounter{Hfootnote}{0}
\setcounter{bookmark@seq@number}{10}
\setcounter{vrcnt}{0}
\setcounter{ALG@line}{0}
\setcounter{ALG@rem}{0}
\setcounter{ALG@nested}{0}
\setcounter{ALG@Lnr}{1}
\setcounter{ALG@blocknr}{1}
\setcounter{ALG@storecount}{0}
\setcounter{ALG@tmpcounter}{0}
\setcounter{section@level}{1}
}
