\relax 
\providecommand\hyper@newdestlabel[2]{}
\@writefile{toc}{\contentsline {section}{\numberline {3}Scientist Aspect}{10}{section.3}}
\newlabel{p2}{{3}{10}{Scientist Aspect}{section.3}{}}
\@writefile{toc}{\contentsline {subsection}{\numberline {3.1}Initial situation and goals}{10}{subsection.3.1}}
\@writefile{toc}{\contentsline {subsubsection}{\numberline {3.1.1}Overview}{10}{subsubsection.3.1.1}}
\@writefile{toc}{\contentsline {subsubsection}{\numberline {3.1.2}CPU}{10}{subsubsection.3.1.2}}
\@writefile{toc}{\contentsline {subsubsection}{\numberline {3.1.3}Rack and I/O section}{10}{subsubsection.3.1.3}}
\@writefile{toc}{\contentsline {subsubsection}{\numberline {3.1.4}Programming PLCs}{11}{subsubsection.3.1.4}}
\@writefile{toc}{\contentsline {subsubsection}{\numberline {3.1.5}Real-Time Embedded Systems}{11}{subsubsection.3.1.5}}
\@writefile{toc}{\contentsline {subsubsection}{\numberline {3.1.6}Goals}{12}{subsubsection.3.1.6}}
\@writefile{toc}{\contentsline {subsection}{\numberline {3.2}Trace}{13}{subsection.3.2}}
\@writefile{toc}{\contentsline {subsubsection}{\numberline {3.2.1}Jobs}{13}{subsubsection.3.2.1}}
\@writefile{toc}{\contentsline {subsubsection}{\numberline {3.2.2}Data Address}{14}{subsubsection.3.2.2}}
\@writefile{toc}{\contentsline {subsubsection}{\numberline {3.2.3}Tracing Data}{15}{subsubsection.3.2.3}}
\@writefile{toc}{\contentsline {paragraph}{Trace Job}{15}{section*.10}}
\@writefile{toc}{\contentsline {paragraph}{Read Trace Job}{16}{section*.11}}
\@writefile{toc}{\contentsline {paragraph}{Large buffer}{17}{section*.12}}
\@writefile{toc}{\contentsline {subsubsection}{\numberline {3.2.4}How this works ?}{17}{subsubsection.3.2.4}}
\@writefile{toc}{\contentsline {subsection}{\numberline {3.3}Compression algorithm}{17}{subsection.3.3}}
\@writefile{toc}{\contentsline {subsubsection}{\numberline {3.3.1}The Compression}{17}{subsubsection.3.3.1}}
\@writefile{toc}{\contentsline {subsubsection}{\numberline {3.3.2}The Algorithm}{18}{subsubsection.3.3.2}}
\@writefile{toc}{\contentsline {subsubsection}{\numberline {3.3.3}The Results}{19}{subsubsection.3.3.3}}
\@setckpt{partie2}{
\setcounter{page}{23}
\setcounter{equation}{0}
\setcounter{enumi}{3}
\setcounter{enumii}{0}
\setcounter{enumiii}{0}
\setcounter{enumiv}{0}
\setcounter{footnote}{0}
\setcounter{mpfootnote}{0}
\setcounter{part}{0}
\setcounter{section}{3}
\setcounter{subsection}{3}
\setcounter{subsubsection}{3}
\setcounter{paragraph}{0}
\setcounter{subparagraph}{0}
\setcounter{figure}{2}
\setcounter{table}{0}
\setcounter{Item}{7}
\setcounter{Hfootnote}{0}
\setcounter{bookmark@seq@number}{28}
\setcounter{vrcnt}{0}
\setcounter{ALG@line}{0}
\setcounter{ALG@rem}{0}
\setcounter{ALG@nested}{0}
\setcounter{ALG@Lnr}{1}
\setcounter{ALG@blocknr}{1}
\setcounter{ALG@storecount}{0}
\setcounter{ALG@tmpcounter}{0}
\setcounter{section@level}{3}
}
